{
    "display": {
        "icon": {
            "item": "nethercraft:devil_bread"
        },
        "title": {
            "translate": "advancements.nethercraft.craft_bread"
        },
        "description": {
            "translate": "advancements.nethercraft.craft_bread.desc"
        }
    },
    "parent": "nethercraft:farming_tools",
    "criteria": {
        "have_log": {
            "trigger": "minecraft:inventory_changed",
            "conditions": {
                "items": [
                    {
                        "item": "nethercraft:devil_bread"
                    }
                ]
            }
        }
    }
}