{
  "type": "minecraft:crafting_shaped",
  "pattern": [
    "# #",
    "###",
    "# #"
  ],
  "key": {
    "#": [
      {
        "item": "nethercraft:glowood_stick"
      }
    ]
  },
  "result": {
    "item": "nethercraft:glowood_ladder",
    "count": 3
  }
}
