{
  "type": "minecraft:crafting_shaped",
  "pattern": [
    "###",
    "###"
  ],
  "key": {
    "#": {
      "item": "nethercraft:slow_glass"
    }
  },
  "result": {
    "item": "nethercraft:slow_glass_pane",
    "count": 16
  }
}